# Blender v2.66 (sub 1) OBJ File: 'titleRock.blend'
# www.blender.org
mtllib titleRock.mtl
o Icosphere
v 2.824825 -0.968005 1.101308
v -2.687017 0.856397 1.103231
v -2.700995 0.889139 -0.999501
v 1.667842 -1.781475 0.228477
v 3.369717 -1.168039 -0.219661
v -2.548071 -1.141464 0.975531
v 3.828373 -0.060237 0.148321
v -3.689302 -0.049362 0.233401
v -3.688137 -0.073562 -0.666028
v 2.679642 1.042738 0.967598
v -0.860804 0.916083 1.177292
v -3.231933 1.059044 -0.215180
v -0.880119 0.968446 -1.060676
v 0.662952 1.651801 0.587996
v -1.525514 1.672631 0.229337
v 2.224942 -1.440030 0.833951
v 2.149254 -1.593390 -0.742491
v 3.180100 -1.166702 0.205251
v -2.846787 -1.348377 0.166674
v -1.681626 -1.106268 -1.007519
v -1.034311 -1.979574 -0.348869
v 3.727038 0.705792 -0.307980
v 3.389373 -0.495266 0.969950
v -2.078138 0.772009 1.332607
v -3.652683 -0.598211 0.044637
v -3.278373 0.413031 -0.952441
v -2.268254 -0.680781 -1.019268
v 0.304500 0.499535 -1.210111
v 2.106859 -0.842921 -1.041286
v 1.868165 0.802530 1.354108
v 3.121508 0.955089 -0.672989
v 0.745745 1.930503 -0.220761
v 1.667062 1.350184 1.065558
v -2.088036 1.332898 0.834244
v 0.323785 1.278368 -1.012993
v 0.405007 -1.301992 1.170784
v 0.635928 -2.036063 -0.360263
v 2.747092 -1.516740 -0.480484
v -2.977102 -1.058775 -0.691218
v -1.421445 -1.442109 -0.912252
v 3.409249 -0.577966 -0.777674
v 3.797334 0.475109 0.040935
v 2.271852 -0.868370 1.322561
v 0.464687 0.277383 1.204710
v -0.542503 -0.521122 1.210599
v -3.251240 0.386002 0.970371
v -3.591115 -0.818770 -0.336376
v -2.368034 0.304962 -1.138736
v -0.565781 -0.359579 -1.224939
v 3.203144 1.063982 0.178582
v -3.038373 1.053849 0.212454
v -1.713173 0.922433 -1.127383
v 2.691450 1.490809 -0.223707
v 0.960980 1.848204 0.072509
v -1.003208 1.872057 -0.054716
v -1.057432 1.812555 -0.579394
v -0.269606 1.769037 -0.740584
v 0.303700 -1.825302 0.842672
v 1.358954 -1.481613 0.827338
v 2.584990 -1.599166 0.030806
v 1.195873 -1.975498 -0.085983
v -0.838917 -1.958279 0.174131
v -1.522919 -1.415718 1.279918
v -2.550045 -1.593012 -0.285040
v 1.395685 -1.482408 -0.939133
v 0.493777 -1.849962 -0.776442
v 0.020568 -1.337954 -1.037134
v 3.895720 -0.050039 -0.500965
v 3.721412 -0.680725 0.049178
v 3.696770 -0.695463 -0.447120
v 0.943040 -0.918208 1.214986
v 2.197484 -0.062359 1.195630
v -2.953709 -0.058460 1.044048
v -3.193233 -0.585772 1.003012
v -1.939719 -0.696397 1.332028
v -2.971604 -0.144290 -1.020399
v -3.188519 -0.684180 -0.851269
v 1.190374 -0.035931 -1.211830
v 1.208408 -0.482691 -1.189003
v 3.089787 -0.049627 1.044829
v 3.328068 0.474407 1.011041
v -1.995995 -0.029295 1.204965
v -0.701239 0.323876 1.248916
v -3.577197 0.579315 -0.493167
v -3.791029 -0.038313 -0.216651
v -3.577954 0.576026 0.057402
v -1.544788 0.332788 -1.144544
v 3.359627 0.540091 -0.803938
v 3.168490 -0.072172 -0.953450
v 2.175900 0.710084 -1.043692
v 2.401073 1.466313 0.193973
v -0.428100 1.688901 0.627975
v -1.199856 1.381849 0.816345
v -0.041285 1.199566 1.050565
v -2.757308 1.336860 -0.536169
v -2.443372 1.489558 0.042364
v -2.005527 1.333570 -0.936197
v 1.905925 1.596529 -0.577546
v 1.697402 1.395653 -0.839961
usemtl None
s off
f 37 61 62
f 1 16 18
f 37 62 21
f 1 18 23
f 47 19 25
f 1 23 43
f 20 27 49
f 17 29 41
f 2 24 34
f 3 95 97
f 22 31 53
f 4 16 59
f 5 60 38
f 64 62 19
f 58 36 63
f 66 21 40
f 17 66 65
f 66 40 67
f 7 68 42
f 7 69 68
f 5 38 70
f 71 43 72
f 8 73 46
f 8 74 73
f 87 76 48
f 87 27 76
f 89 78 90
f 89 79 78
f 65 67 79
f 72 30 44
f 72 80 30
f 7 42 81
f 9 84 26
f 9 85 84
f 8 46 86
f 68 88 22
f 68 89 88
f 14 33 54
f 10 50 91
f 15 92 55
f 15 93 92
f 56 95 55
f 12 51 96
f 13 52 97
f 53 98 32
f 31 90 99
f 62 61 58
f 61 4 58
f 18 60 5
f 18 16 60
f 16 4 60
f 21 62 64
f 37 66 17
f 37 21 66
f 23 69 7
f 23 18 69
f 18 5 69
f 45 71 44
f 45 36 71
f 25 74 8
f 25 19 74
f 19 6 74
f 20 39 27
f 29 79 89
f 29 65 79
f 43 80 72
f 43 23 80
f 23 7 80
f 45 83 82
f 45 44 83
f 47 85 9
f 47 25 85
f 25 8 85
f 27 87 49
f 41 89 68
f 41 29 89
f 30 10 33
f 34 93 15
f 34 24 93
f 24 11 93
f 97 95 56
f 53 31 98
f 36 59 71
f 36 58 59
f 58 4 59
f 59 43 71
f 59 16 43
f 16 1 43
f 38 61 17
f 38 60 61
f 60 4 61
f 61 37 17
f 64 19 47
f 19 63 6
f 19 62 63
f 62 58 63
f 63 75 6
f 63 36 75
f 36 45 75
f 40 39 20
f 40 64 39
f 40 21 64
f 64 47 39
f 17 65 29
f 65 66 67
f 40 20 67
f 42 68 22
f 68 69 70
f 69 5 70
f 70 41 68
f 70 38 41
f 38 17 41
f 71 72 44
f 46 24 2
f 46 73 24
f 73 82 24
f 73 75 82
f 73 74 75
f 74 6 75
f 75 45 82
f 48 26 3
f 48 76 26
f 76 9 26
f 76 77 9
f 76 27 77
f 27 39 77
f 77 47 9
f 77 39 47
f 90 78 28
f 78 49 28
f 78 79 49
f 79 67 49
f 67 20 49
f 30 81 10
f 30 80 81
f 80 7 81
f 81 50 10
f 81 42 50
f 42 22 50
f 82 11 24
f 82 83 11
f 83 94 11
f 83 44 94
f 44 30 94
f 26 95 3
f 26 84 95
f 84 12 95
f 84 86 12
f 84 85 86
f 85 8 86
f 86 51 12
f 86 46 51
f 46 2 51
f 28 13 35
f 28 87 13
f 28 49 87
f 87 52 13
f 87 48 52
f 48 3 52
f 22 88 31
f 88 90 31
f 88 89 90
f 54 53 32
f 54 91 53
f 54 33 91
f 33 10 91
f 91 50 53
f 50 22 53
f 55 54 32
f 55 92 54
f 92 14 54
f 92 94 14
f 92 93 94
f 93 11 94
f 94 33 14
f 94 30 33
f 56 55 32
f 55 96 15
f 55 95 96
f 95 12 96
f 96 34 15
f 96 51 34
f 51 2 34
f 57 56 32
f 57 97 56
f 57 35 97
f 35 13 97
f 52 3 97
f 32 98 57
f 98 99 57
f 98 31 99
f 99 35 57
f 99 90 35
f 90 28 35
