# Blender v2.66 (sub 1) OBJ File: 'MediumHandle8.blend'
# www.blender.org
mtllib MediumHandle8.mtl
o Cube.031_Cube.032
v 0.053581 -0.617889 0.080389
v 0.053581 -0.617889 -0.080389
v 0.053581 -0.060195 0.080389
v 0.053581 -0.060195 -0.080389
v 0.075046 -0.766774 -0.165790
v 0.075046 -0.766774 0.165790
v 0.053581 -0.060195 -0.000000
v 0.053580 -0.617890 -0.000000
v 0.075046 -0.617890 -0.000000
v 0.075046 -0.912951 -0.000000
v 0.053580 -0.766896 0.112845
v 0.053579 -0.692332 -0.082895
v 0.053579 -0.692332 0.082895
v 0.053578 -0.766774 -0.165790
v 0.053578 -0.912950 -0.000000
v 0.053578 -0.766774 0.165790
v 0.075046 -0.766896 0.112845
v 0.075046 -0.766896 -0.112845
v 0.075046 -0.866391 -0.000000
v 0.075046 -0.665558 -0.000000
v 0.053580 -0.766896 -0.112845
v 0.053580 -0.866391 -0.000000
v 0.053580 -0.665558 -0.000000
v -0.053581 -0.617889 0.080389
v -0.053581 -0.617889 -0.080389
v -0.053581 -0.060195 0.080389
v -0.053581 -0.060195 -0.080389
v 0.000000 -0.060195 0.080389
v 0.000000 -0.617889 0.080389
v -0.000000 -0.060195 -0.080389
v -0.000000 -0.617889 -0.080389
v 0.000000 -0.692332 0.082895
v -0.000000 -0.692332 -0.082895
v -0.000000 -0.766774 -0.165790
v -0.075046 -0.766774 -0.165790
v -0.075046 -0.766774 0.165790
v -0.053581 -0.060195 0.000000
v -0.053580 -0.617890 0.000000
v -0.000000 -0.060195 0.000000
v -0.075046 -0.617890 0.000000
v -0.075046 -0.912951 0.000000
v -0.053580 -0.766896 0.112845
v -0.000000 -0.912950 0.000000
v 0.000000 -0.766774 0.165790
v -0.053579 -0.692332 -0.082895
v -0.053579 -0.692332 0.082895
v -0.053578 -0.766774 -0.165790
v -0.053578 -0.912950 0.000000
v -0.053578 -0.766774 0.165790
v -0.075046 -0.766896 0.112845
v -0.075046 -0.766896 -0.112845
v -0.075046 -0.866391 0.000000
v -0.075046 -0.665558 0.000000
v -0.053580 -0.766896 -0.112845
v -0.053580 -0.866391 -0.000000
v -0.053580 -0.665558 -0.000000
usemtl None
s off
f 29 1 3 28
f 4 2 31 30
f 7 39 28 3
f 7 8 2 4
f 34 14 15 43
f 17 20 9 6
f 14 34 33 12
f 4 30 39 7
f 3 1 8 7
f 19 22 11 17
f 17 11 23 20
f 20 23 21 18
f 14 5 10 15
f 15 16 44 43
f 8 1 13
f 10 6 16 15
f 14 12 8 9 5
f 12 2 8
f 31 2 12 33
f 32 44 16 13
f 32 13 1 29
f 6 9 8 13 16
f 18 21 22 19
f 6 10 19 17
f 10 5 18 19
f 5 9 20 18
f 21 23 11 22
f 29 28 26 24
f 27 30 31 25
f 37 26 28 39
f 37 27 25 38
f 34 43 48 47
f 50 36 40 53
f 47 45 33 34
f 27 37 39 30
f 26 37 38 24
f 52 50 42 55
f 50 53 56 42
f 53 51 54 56
f 47 48 41 35
f 48 43 44 49
f 38 46 24
f 41 48 49 36
f 47 35 40 38 45
f 45 38 25
f 31 33 45 25
f 32 46 49 44
f 32 29 24 46
f 36 49 46 38 40
f 51 52 55 54
f 36 50 52 41
f 41 52 51 35
f 35 51 53 40
f 54 55 42 56
