# Blender v2.66 (sub 1) OBJ File: 'MediumGuard6.blend'
# www.blender.org
mtllib MediumGuard6.mtl
o Cube.020_Cube.030
v 0.070954 0.000000 0.224789
v 0.070954 0.000000 -0.224789
v 0.070954 -0.068130 0.224789
v 0.070954 -0.068130 -0.224789
v 0.039119 -0.020264 0.316291
v 0.039118 0.039105 0.345865
v 0.039119 -0.020264 -0.316291
v 0.039118 0.039105 -0.345865
v 0.099369 -0.085757 0.154850
v 0.099369 0.000000 0.154850
v 0.099369 0.000000 -0.154850
v 0.099369 -0.085757 -0.154850
v -0.070954 0.000000 0.224789
v -0.070954 0.000000 -0.224789
v -0.070954 -0.068130 0.224789
v -0.070954 -0.068130 -0.224789
v 0.000000 -0.068130 -0.224789
v 0.000000 0.000000 -0.224789
v 0.000000 -0.068130 0.224789
v 0.000000 0.000000 0.224789
v 0.000000 -0.020264 0.316291
v -0.039119 -0.020264 0.316291
v -0.039118 0.039105 0.345865
v 0.000000 0.039105 0.345865
v -0.039119 -0.020264 -0.316291
v 0.000000 -0.020264 -0.316291
v 0.000000 0.039105 -0.345865
v -0.039118 0.039105 -0.345865
v -0.099369 -0.085757 0.154850
v -0.099369 0.000000 0.154850
v 0.000000 0.000000 0.154850
v 0.000000 -0.085757 0.154850
v 0.000000 -0.085757 -0.154850
v 0.000000 0.000000 -0.154850
v -0.099369 0.000000 -0.154850
v -0.099369 -0.085757 -0.154850
usemtl None
s off
f 19 20 1 3
f 33 17 4 12
f 4 17 18 2
f 11 2 18 34
f 21 5 6 24
f 7 26 27 8
f 4 17 26 7
f 3 5 21 19
f 2 8 27 18
f 7 8 2 4
f 5 3 1 6
f 1 20 24 6
f 9 10 1 3
f 19 32 9 3
f 1 10 31 20
f 10 11 34 31
f 32 33 12 9
f 9 12 11 10
f 12 4 2 11
f 19 15 13 20
f 33 36 16 17
f 16 14 18 17
f 35 34 18 14
f 21 24 23 22
f 25 28 27 26
f 16 25 26 17
f 15 19 21 22
f 14 18 27 28
f 25 16 14 28
f 22 23 13 15
f 13 23 24 20
f 29 15 13 30
f 19 15 29 32
f 13 20 31 30
f 30 31 34 35
f 32 29 36 33
f 29 30 35 36
f 36 35 14 16
