# Blender v2.66 (sub 1) OBJ File: 'MediumGuard5.blend'
# www.blender.org
mtllib MediumGuard5.mtl
o Cube.003_Cube.005
v 0.104760 0.000000 0.179986
v 0.104760 -0.092154 0.179986
v 0.104760 -0.092154 0.269005
v 0.104760 -0.000000 0.269005
v 0.104760 -0.000696 -0.179986
v 0.104760 -0.092154 -0.179986
v 0.104760 -0.092154 -0.269003
v 0.104760 -0.000696 -0.269003
v 0.104760 -0.092154 0.000000
v 0.104760 0.090880 0.000000
v -0.104760 0.000000 0.179986
v -0.104760 -0.092154 0.179986
v 0.000000 -0.092154 0.179986
v 0.000000 0.000000 0.179986
v 0.000000 -0.000000 0.269005
v 0.000000 -0.092154 0.269005
v -0.104760 -0.092154 0.269005
v -0.104760 -0.000000 0.269005
v -0.104760 -0.000696 -0.179986
v -0.104760 -0.092154 -0.179986
v 0.000000 -0.092154 -0.179986
v 0.000000 -0.000696 -0.179986
v 0.000000 0.002089 -0.269003
v 0.000000 -0.092154 -0.269003
v -0.104760 -0.092154 -0.269003
v -0.104760 -0.000696 -0.269003
v -0.104760 -0.092154 0.000000
v -0.104760 0.090880 0.000000
v 0.000000 0.090880 0.000000
v 0.000000 -0.092154 0.000000
usemtl None
s off
f 13 2 3 16
f 2 9 10 1
f 13 30 9 2
f 1 10 29 14
f 1 14 15 4
f 2 1 4 3
f 16 3 4 15
f 21 24 7 6
f 6 5 10 9
f 21 6 9 30
f 5 22 29 10
f 5 8 23 22
f 6 7 8 5
f 24 23 8 7
f 13 16 17 12
f 12 11 28 27
f 13 12 27 30
f 11 14 29 28
f 11 18 15 14
f 14 15 16 13
f 12 17 18 11
f 16 15 18 17
f 21 20 25 24
f 20 27 28 19
f 21 30 27 20
f 19 28 29 22
f 19 22 23 26
f 22 21 24 23
f 20 19 26 25
f 24 25 26 23
