# Blender v2.66 (sub 1) OBJ File: 'MediumGuard4.blend'
# www.blender.org
mtllib MediumGuard4.mtl
o Cube.012_Cube.007
v 0.084673 0.000000 -0.243896
v 0.084673 0.000000 0.214030
v 0.084673 -0.101044 -0.243896
v 0.084673 -0.101044 0.214030
v 0.033264 -0.101044 0.297613
v 0.084670 -0.618428 0.214030
v 0.033264 -0.557211 0.297613
v -0.084673 0.000000 -0.243896
v -0.084673 0.000000 0.214030
v -0.084673 -0.101044 -0.243896
v -0.084673 -0.101044 0.214030
v 0.000000 -0.101044 0.203255
v 0.000000 0.000000 0.214030
v 0.000000 -0.101044 -0.243896
v 0.000000 0.000000 -0.243896
v -0.033264 -0.101044 0.297613
v 0.000000 -0.101044 0.297613
v -0.084670 -0.618428 0.214030
v 0.000000 -0.618428 0.214030
v -0.033264 -0.557211 0.297613
v 0.000000 -0.557211 0.297613
usemtl None
s off
f 3 1 2 4
f 14 3 4 12
f 1 15 13 2
f 4 2 5
f 17 5 2 13
f 5 7 6 4
f 6 7 21 19
f 4 6 19 12
f 17 21 7 5
f 1 3 14 15
f 10 11 9 8
f 14 12 11 10
f 8 9 13 15
f 11 16 9
f 17 13 9 16
f 16 11 18 20
f 18 19 21 20
f 11 12 19 18
f 17 16 20 21
f 12 17 21 19
f 8 15 14 10
f 12 13
