# Blender v2.66 (sub 1) OBJ File: 'MediumHandle4.blend'
# www.blender.org
mtllib MediumHandle4.mtl
o Cube.015
v 0.053897 -0.761208 0.060449
v 0.053897 -0.761208 -0.060449
v 0.064293 -0.058436 0.061423
v 0.064295 -0.058436 -0.061423
v 0.064295 -0.202089 0.061425
v 0.064295 -0.202089 -0.061425
v 0.038983 -0.716259 -0.045653
v 0.038983 -0.716259 0.045653
v 0.035320 -0.801152 0.038631
v 0.035320 -0.801152 -0.038631
v -0.053897 -0.761208 0.060449
v -0.053897 -0.761208 -0.060449
v -0.064292 -0.058436 0.061423
v -0.064295 -0.058436 -0.061423
v 0.000002 -0.058436 0.061423
v 0.000000 -0.761208 0.060449
v -0.000000 -0.058436 -0.061423
v -0.000000 -0.761208 -0.060449
v -0.064295 -0.202089 0.061426
v -0.064295 -0.202089 -0.061425
v 0.000000 -0.202089 0.061425
v -0.000000 -0.202089 -0.061425
v -0.038983 -0.716259 -0.045653
v -0.038983 -0.716259 0.045653
v -0.000000 -0.716259 -0.045653
v 0.000000 -0.716259 0.045653
v -0.035320 -0.801152 0.038631
v -0.035320 -0.801152 -0.038631
v 0.000000 -0.801152 0.038631
v -0.000000 -0.801152 -0.038631
usemtl None
s off
f 17 4 6 22
f 2 1 9 10
f 4 3 5 6
f 4 17 15 3
f 6 5 21 22
f 3 15 21 5
f 7 8 1 2
f 7 25 22 6
f 26 8 5 21
f 6 5 8 7
f 2 18 25 7
f 16 1 8 26
f 30 10 9 29
f 18 2 10 30
f 1 16 29 9
f 17 22 20 14
f 12 28 27 11
f 14 20 19 13
f 14 13 15 17
f 20 22 21 19
f 15 21 22 17
f 13 19 21 15
f 23 12 11 24
f 23 20 22 25
f 26 21 19 24
f 20 23 24 19
f 12 23 25 18
f 16 26 24 11
f 30 29 27 28
f 18 30 28 12
f 11 27 29 16
f 16 29 30 18
