# Blender v2.66 (sub 1) OBJ File: 'MediumGuard1.blend'
# www.blender.org
mtllib MediumGuard1.mtl
o Cube.014_Cube.026
v 0.104760 0.000000 0.224521
v 0.104760 0.000000 -0.224521
v 0.104760 -0.104849 0.224521
v 0.104760 -0.104849 -0.224521
v -0.104760 0.000000 0.224521
v -0.104760 0.000000 -0.224521
v -0.104760 -0.104849 0.224521
v -0.104760 -0.104849 -0.224521
v 0.000000 -0.104849 -0.224521
v 0.000000 0.000000 -0.224521
v 0.000000 -0.104849 0.224521
v 0.000000 0.000000 0.224521
usemtl None
s off
f 3 4 2 1
f 11 3 1 12
f 11 9 4 3
f 4 9 10 2
f 1 2 10 12
f 7 5 6 8
f 11 12 5 7
f 11 7 8 9
f 8 6 10 9
f 5 12 10 6
