# Blender v2.66 (sub 1) OBJ File: 'SmallHandle6.blend'
# www.blender.org
mtllib SmallHandle6.mtl
o Cube.024_Cube.031
v -0.064974 -0.603471 -0.062463
v -0.064974 -0.048095 -0.062463
v -0.090570 -0.621677 -0.081837
v -0.090570 -0.741367 -0.081837
v -0.090570 -0.681522 -0.103825
v -0.090570 -0.605598 -0.065108
v -0.090570 -0.757445 -0.065108
v -0.090570 -0.719484 -0.103825
v -0.090570 -0.643560 -0.103825
v -0.090570 -0.719484 -0.065108
v -0.064974 -0.048095 -0.031231
v -0.064974 -0.603471 -0.031231
v -0.090570 -0.643560 -0.065108
v -0.090570 -0.681522 -0.065108
v -0.064974 -0.603471 0.062463
v -0.064974 -0.048095 0.062463
v -0.090569 -0.621677 0.081838
v -0.090569 -0.741367 0.081838
v -0.064974 -0.048095 0.000000
v -0.064974 -0.603471 0.000000
v -0.090570 -0.605598 0.000000
v -0.090570 -0.757445 0.000000
v -0.090569 -0.681522 0.103825
v -0.090570 -0.605598 0.065108
v -0.090570 -0.757445 0.065108
v -0.090569 -0.719484 0.103825
v -0.090569 -0.643560 0.103825
v -0.090570 -0.719484 0.000000
v -0.090570 -0.719484 0.065108
v -0.090570 -0.643560 0.000000
v -0.064974 -0.048095 0.031232
v -0.064974 -0.603471 0.031232
v -0.090570 -0.643560 0.065108
v -0.090570 -0.681522 0.065108
v 0.064974 -0.603471 -0.062463
v 0.064974 -0.048095 -0.062463
v -0.000000 -0.048095 -0.062463
v -0.000000 -0.603471 -0.062463
v 0.090569 -0.621677 -0.081838
v 0.090569 -0.741367 -0.081838
v 0.090569 -0.681522 -0.103825
v 0.090570 -0.605598 -0.065108
v 0.090570 -0.757445 -0.065108
v 0.090569 -0.719484 -0.103825
v 0.090569 -0.643560 -0.103825
v 0.090570 -0.719484 -0.065108
v -0.000000 -0.048095 -0.031230
v 0.064974 -0.048095 -0.031232
v 0.064974 -0.603471 -0.031232
v 0.090570 -0.643560 -0.065108
v 0.090570 -0.681522 -0.065108
v -0.000000 -0.621677 -0.081838
v -0.000000 -0.741367 -0.081838
v -0.000000 -0.681522 -0.103825
v -0.000000 -0.719484 -0.103825
v -0.000000 -0.643560 -0.103825
v 0.064974 -0.603471 0.062463
v 0.064974 -0.048095 0.062463
v 0.000000 -0.048095 0.062463
v 0.000000 -0.603471 0.062463
v 0.090570 -0.621677 0.081837
v 0.090570 -0.741367 0.081837
v 0.064974 -0.048095 -0.000000
v 0.064974 -0.603471 -0.000000
v 0.000000 -0.048095 0.000000
v 0.090570 -0.605598 -0.000000
v 0.090570 -0.757445 -0.000000
v 0.090570 -0.681522 0.103825
v 0.090570 -0.605598 0.065108
v 0.090570 -0.757445 0.065108
v 0.090570 -0.719484 0.103825
v 0.090570 -0.643560 0.103825
v 0.090570 -0.719484 -0.000000
v 0.090570 -0.719484 0.065108
v 0.090570 -0.643560 -0.000000
v 0.000000 -0.048095 0.031230
v 0.064974 -0.048095 0.031231
v 0.064974 -0.603471 0.031231
v 0.090570 -0.643560 0.065108
v 0.090570 -0.681522 0.065108
v 0.000000 -0.621677 0.081838
v 0.000000 -0.741367 0.081838
v 0.000000 -0.681522 0.103825
v 0.000000 -0.719484 0.103825
v 0.000000 -0.643560 0.103825
usemtl None
s off
f 1 3 6
f 2 37 38 1
f 11 2 1 12
f 10 8 4 7
f 11 19 65 47
f 9 5 14 13
f 14 5 8 10
f 6 3 9 13
f 2 11 47 37
f 20 12 6 21
f 19 11 12 20
f 28 10 7 22
f 21 6 13 30
f 9 3 52 56
f 8 5 54 55
f 5 9 56 54
f 4 8 55 53
f 1 52 3
f 38 52 1
f 12 1 6
f 16 15 60 59
f 31 32 15 16
f 29 25 18 26
f 31 76 65 19
f 33 34 23 27
f 34 29 26 23
f 24 33 27 17
f 16 59 76 31
f 20 21 24 32
f 19 20 32 31
f 28 22 25 29
f 21 30 33 24
f 27 85 81 17
f 26 84 83 23
f 23 83 85 27
f 18 82 84 26
f 15 17 81
f 60 15 81
f 7 4 53
f 42 35 49
f 36 35 38 37
f 48 49 35 36
f 46 43 40 44
f 48 47 65 63
f 45 50 51 41
f 51 46 44 41
f 42 50 45 39
f 36 37 47 48
f 64 66 42 49
f 63 64 49 48
f 73 67 43 46
f 66 75 50 42
f 45 56 52 39
f 44 55 54 41
f 41 54 56 45
f 40 53 55 44
f 35 39 52
f 38 35 52
f 78 57 69
f 58 59 60 57
f 77 58 57 78
f 74 71 62 70
f 77 63 65 76
f 79 72 68 80
f 80 68 71 74
f 69 61 72 79
f 58 77 76 59
f 64 78 69 66
f 63 77 78 64
f 73 74 70 67
f 66 69 79 75
f 72 61 81 85
f 71 68 83 84
f 68 72 85 83
f 62 71 84 82
f 57 81 61
f 60 81 57
f 53 40 43
f 10 28 73 46
f 74 73 28 29
f 80 74 29 34
f 79 80 34 33
f 33 30 75 79
f 50 75 30 13
f 13 14 51 50
f 14 10 46 51
f 57 61 69
f 42 39 35
f 24 15 32
f 24 17 15
f 7 53 43
f 43 67 22 7
f 70 62 82
f 82 18 25
f 70 82 25
f 25 22 67 70
