# Blender v2.66 (sub 1) OBJ File: 'SmallHandle3.blend'
# www.blender.org
mtllib SmallHandle3.mtl
o Cube.017
v 0.064835 -0.614767 0.065763
v 0.064835 -0.614767 -0.065763
v 0.064835 -0.059391 0.065763
v 0.064835 -0.059391 -0.065763
v 0.094772 -0.616474 0.104525
v 0.094771 -0.616474 -0.104525
v 0.094772 -0.711313 0.104525
v 0.094771 -0.711313 -0.104525
v -0.064835 -0.614767 0.065763
v -0.064835 -0.614767 -0.065763
v -0.064835 -0.059391 0.065763
v -0.064835 -0.059391 -0.065763
v 0.000000 -0.059391 0.065763
v 0.000000 -0.614767 0.065763
v -0.000000 -0.059391 -0.065763
v -0.000000 -0.614767 -0.065763
v -0.094771 -0.616474 0.104525
v -0.094771 -0.616474 -0.104525
v 0.000000 -0.616474 0.104525
v -0.000000 -0.616474 -0.104525
v -0.094771 -0.711313 0.104525
v -0.094771 -0.711313 -0.104525
v 0.000000 -0.711313 0.104525
v -0.000000 -0.711313 -0.104525
usemtl None
s off
f 14 1 3 13
f 1 5 6 2
f 4 2 16 15
f 4 15 13 3
f 3 1 2 4
f 2 6 20 16
f 14 19 5 1
f 24 8 7 23
f 5 7 8 6
f 6 8 24 20
f 19 23 7 5
f 14 13 11 9
f 9 10 18 17
f 12 15 16 10
f 12 11 13 15
f 11 12 10 9
f 20 19 23 24
f 10 16 20 18
f 14 9 17 19
f 16 14 19 20
f 24 23 21 22
f 17 18 22 21
f 18 20 24 22
f 19 17 21 23
