# Blender v2.66 (sub 1) OBJ File: 'SmallBlade5.blend'
# www.blender.org
mtllib SmallBlade5.mtl
o Cube.013
v 0.065953 1.103339 0.126008
v 0.065953 0.000000 0.126008
v 0.000000 0.000000 -0.188058
v 0.000000 0.000000 0.212577
v 0.000000 1.205562 0.212578
v 0.000000 1.301839 -0.188058
v -0.065953 1.103339 0.126008
v 0.000000 0.000000 0.012260
v -0.065953 0.000000 0.126008
usemtl Material.005
s off
f 4 8 2
f 8 3 2
f 5 4 2 1
f 5 1 6
f 1 2 3 6
f 4 9 8
f 8 9 3
f 5 7 9 4
f 5 6 7
f 7 6 3 9
