# Blender v2.66 (sub 1) OBJ File: 'LargeHandle7.blend'
# www.blender.org
mtllib LargeHandle7.mtl
o Cube.032_Cube.029
v 0.072788 -1.112566 0.080653
v 0.072788 -1.093997 -0.055748
v 0.028438 -0.060740 0.150853
v 0.059183 -0.060740 -0.066706
v 0.072788 -1.047824 0.080653
v 0.072788 -1.047824 -0.080653
v 0.037178 -1.040181 0.126783
v 0.037178 -1.088381 0.126783
v 0.023779 -1.047764 0.174683
v 0.023779 -1.024282 0.174683
v 0.054950 -1.047828 0.057361
v 0.054950 -1.047828 -0.057361
v 0.059183 -0.118623 0.089894
v 0.054950 -0.118623 -0.057361
v 0.054950 -0.118621 0.057361
v 0.059183 -0.060740 0.108960
v 0.072790 -0.060740 -0.066706
v 0.072790 -0.118623 0.089894
v 0.072790 -0.118623 -0.066706
v 0.072790 -0.118621 0.066706
v 0.072790 -0.060740 0.108960
v 0.059183 -0.060740 -0.080650
v 0.059183 -0.118623 -0.080650
v 0.072790 -0.060740 -0.080650
v 0.072790 -0.118623 -0.080650
v 0.054950 -0.579047 0.057361
v 0.054950 -0.579048 -0.057361
v 0.072930 -0.579052 -0.072660
v 0.072925 -0.579051 0.072660
v 0.072925 -0.545513 0.072660
v 0.072930 -0.545514 -0.072660
v 0.054950 -0.545513 -0.057361
v 0.054950 -0.545512 0.057361
v -0.072788 -1.112566 0.080654
v -0.072788 -1.093997 -0.055748
v -0.028438 -0.060740 0.150853
v -0.059183 -0.060740 -0.066706
v 0.000000 -0.060740 0.150853
v 0.000000 -1.112566 0.080653
v -0.000000 -0.060740 -0.066706
v -0.000000 -1.093997 -0.055748
v -0.072788 -1.047824 0.080654
v -0.072788 -1.047824 -0.080653
v 0.000000 -1.047824 0.080653
v -0.000000 -1.047824 -0.080653
v 0.000000 -1.040181 0.126783
v -0.037178 -1.040181 0.126783
v 0.000000 -1.088381 0.126783
v -0.037178 -1.088381 0.126783
v -0.023778 -1.047764 0.174683
v 0.000000 -1.047764 0.174683
v -0.023778 -1.024282 0.174683
v 0.000000 -1.024282 0.174683
v -0.054950 -1.047828 0.057361
v -0.054950 -1.047828 -0.057361
v 0.000000 -1.047828 0.057361
v -0.000000 -1.047828 -0.057361
v -0.059183 -0.118623 0.089894
v -0.054950 -0.118623 -0.057361
v 0.000000 -0.118623 0.089894
v -0.000000 -0.118623 -0.057361
v -0.054950 -0.118621 0.057361
v 0.000000 -0.060740 0.108960
v 0.000000 -0.118621 0.057361
v -0.059183 -0.060740 0.108960
v -0.072790 -0.060740 -0.066706
v -0.072790 -0.118623 0.089894
v -0.072790 -0.118623 -0.066706
v -0.072790 -0.118621 0.066706
v -0.072790 -0.060740 0.108960
v -0.059184 -0.060740 -0.080650
v -0.000000 -0.060740 -0.080650
v -0.059184 -0.118623 -0.080650
v -0.000000 -0.118623 -0.080650
v -0.072790 -0.060740 -0.080650
v -0.072790 -0.118623 -0.080650
v -0.054950 -0.579047 0.057361
v -0.054950 -0.579048 -0.057361
v 0.000000 -0.579047 0.057361
v -0.000000 -0.579048 -0.057361
v -0.072930 -0.579052 -0.072660
v -0.000000 -0.579052 -0.072660
v -0.072925 -0.579051 0.072660
v 0.000000 -0.579051 0.072660
v 0.000000 -0.545513 0.072660
v -0.072925 -0.545513 0.072660
v -0.000000 -0.545514 -0.072660
v -0.072930 -0.545514 -0.072660
v -0.054950 -0.545513 -0.057361
v -0.000000 -0.545513 -0.057361
v -0.054950 -0.545512 0.057361
v 0.000000 -0.545512 0.057361
usemtl None
s off
f 60 13 3 38
f 41 2 1 39
f 6 2 41 45
f 16 63 38 3
f 5 1 2 6
f 12 6 45 57
f 11 5 6 12
f 1 8 48 39
f 44 46 7 5
f 51 9 10 53
f 7 10 9 8
f 5 7 8 1
f 46 53 10 7
f 8 9 51 48
f 44 5 11 56
f 80 27 12 57
f 27 26 11 12
f 64 15 13 60
f 14 23 25 19
f 4 40 63 16
f 15 20 18 13
f 18 3 13
f 92 33 15 64
f 18 20 19 17 21
f 21 3 18
f 16 3 21
f 14 19 20 15
f 16 21 17 4
f 22 23 74 72
f 22 24 25 23
f 4 22 72 40
f 19 25 24 17
f 61 74 23 14
f 17 24 22 4
f 82 28 27 80
f 28 29 26 27
f 56 11 26 79
f 79 26 29 84
f 87 31 28 82
f 31 30 29 28
f 90 32 31 87
f 32 33 30 31
f 84 29 30 85
f 85 30 33 92
f 61 14 32 90
f 14 15 33 32
f 60 38 36 58
f 41 39 34 35
f 43 45 41 35
f 65 36 38 63
f 42 43 35 34
f 39 44 46 48
f 55 57 45 43
f 54 55 43 42
f 34 39 48 49
f 44 42 47 46
f 51 53 52 50
f 48 46 53 51
f 47 49 50 52
f 42 34 49 47
f 46 47 52 53
f 49 48 51 50
f 44 56 54 42
f 80 57 55 78
f 78 55 54 77
f 64 60 58 62
f 59 68 76 73
f 37 65 63 40
f 62 58 67 69
f 67 58 36
f 92 64 62 91
f 67 70 66 68 69
f 70 67 36
f 65 70 36
f 40 61 74 72
f 59 62 69 68
f 65 37 66 70
f 71 72 74 73
f 71 73 76 75
f 37 40 72 71
f 68 66 75 76
f 61 59 73 74
f 66 37 71 75
f 82 80 78 81
f 81 78 77 83
f 56 79 77 54
f 79 84 83 77
f 87 82 81 88
f 88 81 83 86
f 90 87 88 89
f 89 88 86 91
f 84 85 86 83
f 85 92 91 86
f 61 90 89 59
f 59 89 91 62
