# Blender v2.66 (sub 1) OBJ File: 'LargeBlade7.blend'
# www.blender.org
mtllib LargeBlade7.mtl
o Cube.021_Cube.023
v 0.018304 0.084538 0.143636
v 0.018300 0.198732 0.143636
v 0.018300 0.324470 0.142530
v 0.018304 0.084538 -0.143636
v 0.018300 0.198732 -0.143636
v 0.065953 1.849653 0.000000
v 0.065953 0.000000 0.000000
v 0.065953 0.142890 0.000000
v 0.065953 0.435075 0.000000
v 0.018300 0.324470 -0.142530
v 0.065953 0.288983 0.000000
v 0.000000 0.000000 0.143636
v 0.000000 1.923222 0.143637
v 0.000000 0.149251 0.169266
v 0.000000 0.153380 0.294266
v -0.018304 0.084538 0.143636
v -0.018300 0.198732 0.143636
v 0.000000 0.277384 0.169270
v 0.000000 0.334847 0.352943
v -0.018300 0.324470 0.142530
v 0.000000 0.472063 0.351605
v 0.000000 0.395058 0.143640
v 0.000000 0.000000 -0.143636
v 0.000000 1.923222 -0.143637
v 0.000000 0.149251 -0.169266
v 0.000000 0.153380 -0.294266
v -0.018304 0.084538 -0.143636
v -0.018300 0.198732 -0.143636
v 0.000000 0.277384 -0.169270
v 0.000000 0.334847 -0.352943
v -0.065953 1.849653 0.000000
v 0.000000 2.360956 0.000000
v 0.000000 0.000000 0.000000
v -0.065953 0.000000 0.000000
v -0.065953 0.142890 0.000000
v -0.065953 0.435075 0.000000
v -0.018300 0.324470 -0.142530
v 0.000000 0.472063 -0.351605
v 0.000000 0.395058 -0.143640
v -0.065953 0.288983 0.000000
usemtl Material.010
s off
f 12 33 7
f 8 2 1
f 6 32 13
f 15 12 1
f 1 14 15
f 8 1 7
f 1 12 7
f 3 18 2
f 14 1 2
f 19 14 2
f 19 2 18
f 11 2 8
f 18 3 21
f 11 3 2
f 21 3 22
f 22 3 9
f 22 9 6 13
f 3 11 9
f 23 7 33
f 8 4 5
f 6 24 32
f 26 4 23
f 4 26 25
f 8 7 4
f 4 7 23
f 10 5 29
f 25 5 4
f 30 5 25
f 30 29 5
f 11 8 5
f 29 38 10
f 11 5 10
f 38 39 10
f 39 9 10
f 39 24 6 9
f 10 9 11
f 12 34 33
f 35 16 17
f 31 13 32
f 15 16 12
f 16 15 14
f 35 34 16
f 16 34 12
f 20 17 18
f 14 17 16
f 19 17 14
f 19 18 17
f 40 35 17
f 18 21 20
f 40 17 20
f 21 22 20
f 22 36 20
f 22 13 31 36
f 20 36 40
f 23 33 34
f 35 28 27
f 31 32 24
f 26 23 27
f 27 25 26
f 35 27 34
f 27 23 34
f 37 29 28
f 25 27 28
f 30 25 28
f 30 28 29
f 40 28 35
f 29 37 38
f 40 37 28
f 38 37 39
f 39 37 36
f 39 36 31 24
f 37 40 36
