# Blender v2.66 (sub 1) OBJ File: 'LargeHandle0.blend'
# www.blender.org
mtllib LargeHandle0.mtl
o Cube.002
v 0.051372 -0.930956 0.063421
v 0.051372 -0.930956 -0.063422
v 0.051372 -0.053474 0.063421
v 0.051372 -0.053474 -0.063422
v -0.051372 -0.930956 0.063421
v -0.051372 -0.930956 -0.063421
v -0.051372 -0.053474 0.063421
v -0.051372 -0.053474 -0.063421
v 0.000000 -0.053474 0.063421
v 0.000000 -0.930956 0.063421
v -0.000000 -0.053474 -0.063421
v -0.000000 -0.930956 -0.063421
usemtl None
s off
f 10 1 3 9
f 12 2 1 10
f 4 2 12 11
f 4 11 9 3
f 3 1 2 4
f 10 9 7 5
f 12 10 5 6
f 8 11 12 6
f 8 7 9 11
f 7 8 6 5
