# Blender v2.66 (sub 1) OBJ File: 'LargeBlade8.blend'
# www.blender.org
mtllib LargeBlade8.mtl
o Cube.025_Cube.011
v 0.065953 1.771241 0.006285
v 0.065953 0.001649 0.006285
v 0.065953 0.000000 0.006285
v 0.065950 1.889855 -0.048062
v 0.065953 0.379729 0.006285
v 0.065953 0.473202 0.006285
v 0.000000 0.000000 -0.181960
v 0.000000 0.001649 0.171135
v -0.065953 1.771241 0.006285
v 0.000000 0.001649 0.006533
v -0.065953 0.001649 0.006285
v -0.065953 0.000000 0.006285
v 0.000000 0.000000 0.006533
v 0.000000 0.000000 0.171135
v 0.000000 1.762816 0.221808
v -0.065950 1.889855 -0.048062
v 0.000000 1.956979 0.115916
v 0.000000 2.177466 -0.306537
v 0.000000 2.095958 -0.040573
v 0.000000 1.824207 -0.270905
v 0.000000 0.379730 -0.181960
v 0.000000 0.377929 0.181961
v -0.065953 0.379729 0.006285
v -0.065953 0.473202 0.006285
v 0.000000 0.470957 0.184638
v 0.000000 0.487622 -0.270909
usemtl Material.007
s off
f 14 2 13
f 10 7 3
f 19 17 4
f 15 1 17
f 4 18 19
f 17 1 4
f 1 20 4
f 25 22 5 6
f 22 8 2 5
f 15 25 6 1
f 2 7 21 5
f 6 21 26
f 21 6 5
f 1 6 26 20
f 20 18 4
f 14 13 11
f 10 12 7
f 19 16 17
f 15 17 9
f 16 19 18
f 17 16 9
f 9 16 20
f 25 24 23 22
f 22 23 11 8
f 15 9 24 25
f 11 23 21 7
f 24 26 21
f 21 23 24
f 9 20 26 24
f 20 16 18
