# Blender v2.66 (sub 1) OBJ File: 'LargeHandle9.blend'
# www.blender.org
mtllib LargeHandle9.mtl
o Cube.029_Cube.037
v -0.064974 -1.157321 -0.062463
v -0.064974 -0.064344 -0.062463
v -0.090570 -1.235372 -0.094422
v -0.090570 -1.157321 -0.062463
v -0.090570 -1.311296 -0.062463
v -0.090570 -1.273334 -0.094422
v -0.090570 -1.197410 -0.094422
v -0.090570 -1.273334 -0.062463
v -0.064974 -0.064341 -0.028403
v -0.064974 -1.157321 -0.031231
v -0.090570 -1.197410 -0.062463
v -0.090570 -1.235372 -0.062463
v -0.064974 -1.157321 0.062467
v -0.064974 -0.064344 0.062463
v -0.064974 -0.064341 0.000000
v -0.064974 -1.157321 0.000000
v -0.090570 -1.157321 0.000000
v -0.090570 -1.311296 0.000000
v -0.090569 -1.235372 0.094423
v -0.090569 -1.157321 0.062467
v -0.090569 -1.311296 0.062467
v -0.090569 -1.273334 0.094423
v -0.090569 -1.197410 0.094423
v -0.090570 -1.273334 0.000000
v -0.090569 -1.273334 0.062467
v -0.090570 -1.197410 0.000000
v -0.064974 -0.064341 0.028403
v -0.064974 -1.157321 0.031232
v -0.090569 -1.197410 0.062467
v -0.090569 -1.235372 0.062467
v 0.064974 -1.157321 -0.062463
v 0.064974 -0.064344 -0.062463
v -0.000000 -0.064344 -0.062463
v -0.000000 -1.157321 -0.062463
v 0.090569 -1.235372 -0.094423
v 0.090569 -1.157321 -0.062463
v 0.090569 -1.311296 -0.062463
v 0.090569 -1.273334 -0.094423
v 0.090569 -1.197410 -0.094423
v 0.090569 -1.273334 -0.062463
v 0.064974 -0.064344 -0.031232
v 0.064974 -1.157321 -0.031232
v 0.090569 -1.197410 -0.062463
v 0.090569 -1.235372 -0.062463
v -0.000000 -1.235372 -0.094423
v -0.000000 -1.273334 -0.094423
v -0.000000 -1.197410 -0.094423
v 0.064974 -1.157321 0.062467
v 0.064974 -0.064344 0.062463
v 0.000000 -0.064344 0.062463
v 0.000000 -1.157321 0.062467
v 0.064974 -0.064344 -0.000000
v 0.064974 -1.157321 -0.000000
v 0.000000 -0.064341 0.000000
v 0.090570 -1.157321 -0.000000
v 0.090570 -1.311296 -0.000000
v 0.090570 -1.235372 0.094422
v 0.090570 -1.157321 0.062467
v 0.090570 -1.311296 0.062467
v 0.090570 -1.273334 0.094422
v 0.090570 -1.197410 0.094422
v 0.090570 -1.273334 -0.000000
v 0.090570 -1.273334 0.062467
v 0.090570 -1.197410 -0.000000
v 0.064974 -0.064344 0.031231
v 0.064974 -1.157321 0.031231
v 0.090570 -1.197410 0.062467
v 0.090570 -1.235372 0.062467
v 0.000000 -1.235372 0.094423
v 0.000000 -1.273334 0.094423
v 0.000000 -1.197410 0.094423
v 0.090570 -1.235372 -0.000000
v 0.000000 -0.064343 0.031231
v -0.000000 -0.064343 -0.031231
v -0.000000 -0.589850 -0.062463
v 0.000000 -0.589850 0.062464
v -0.064970 -0.589845 -0.062460
v -0.064974 -0.589848 0.000000
v -0.064970 -0.589848 -0.029341
v -0.064974 -0.589845 0.062460
v -0.064974 -0.589848 0.029341
v 0.064974 -0.589850 -0.062463
v 0.064974 -0.589850 -0.000000
v 0.064974 -0.589850 -0.031232
v 0.064974 -0.589850 0.062464
v 0.064974 -0.589850 0.031231
v 0.086520 -0.589846 -0.062460
v 0.086520 -0.630416 -0.062460
v 0.086525 -0.630416 -0.031230
v 0.086525 -0.589846 -0.000000
v 0.086525 -0.630416 -0.000000
v 0.086525 -0.630416 0.031230
v 0.086525 -0.589846 0.031230
v 0.064974 -0.630412 0.031231
v 0.064974 -0.630412 0.062464
v 0.064974 -0.630412 -0.031232
v 0.064974 -0.630412 -0.000000
v 0.064974 -0.630412 -0.062463
v -0.064974 -0.630410 0.029470
v -0.064974 -0.630412 0.062465
v -0.064974 -0.630410 -0.029470
v -0.086525 -0.589844 0.000000
v -0.086525 -0.589844 0.029284
v -0.086525 -0.630414 0.000000
v 0.086525 -0.589846 -0.031230
v 0.086520 -0.630416 0.062460
v 0.086520 -0.589846 0.062460
v -0.064970 -0.589846 0.084331
v 0.000000 -0.589846 0.084331
v 0.000000 -0.630416 0.084331
v -0.064970 -0.630416 0.084331
v -0.064974 -0.630410 0.000000
v -0.064974 -0.630412 -0.062463
v 0.000000 -0.630412 0.062465
v -0.000000 -0.630412 -0.062463
v 0.064970 -0.589846 0.084331
v 0.064970 -0.630416 0.084331
v 0.064970 -0.589846 -0.084329
v -0.000000 -0.589846 -0.084329
v 0.064970 -0.630416 -0.084329
v -0.064970 -0.589846 -0.084329
v -0.064970 -0.630416 -0.084329
v -0.000000 -0.630416 -0.084329
v -0.086524 -0.589846 0.062460
v -0.086524 -0.630416 0.062460
v -0.086525 -0.630414 0.029396
v -0.086525 -0.589846 -0.062460
v -0.086525 -0.630416 -0.062460
v -0.086525 -0.630414 -0.029396
v -0.086525 -0.589844 -0.029284
v 0.086525 -0.589846 -0.084328
v 0.086525 -0.630416 -0.084328
v -0.086525 -0.589846 -0.084328
v -0.086525 -0.630416 -0.084328
v -0.086524 -0.589844 0.084331
v -0.086524 -0.630414 0.084331
v 0.086528 -0.630416 0.084331
v 0.086528 -0.589846 0.084331
v -0.090570 -1.235372 0.000000
usemtl None
s off
f 36 39 47 34
f 113 115 34 1
f 101 113 1 10
f 8 6 5
f 7 3 12 11
f 12 3 6 8
f 4 7 11
f 16 10 4 17
f 112 101 10 16
f 24 8 5 18
f 17 4 11 26
f 6 3 45 46
f 3 7 47 45
f 10 1 4
f 100 13 51 114
f 99 28 13 100
f 29 30 19 23
f 30 25 22 19
f 16 17 20 28
f 112 16 28 99
f 24 18 21 25
f 17 26 29 20
f 22 70 69 19
f 19 69 71 23
f 36 31 42
f 98 31 34 115
f 96 42 31 98
f 39 43 44 35
f 39 36 43
f 53 55 36 42
f 97 53 42 96
f 55 64 43 36
f 38 46 45 35
f 35 45 47 39
f 66 48 58
f 95 114 51 48
f 94 95 48 66
f 67 61 57 68
f 68 57 60 63
f 53 66 58 55
f 97 94 66 53
f 55 58 67 64
f 60 57 69 70
f 57 61 71 69
f 34 47 7 4
f 20 13 28
f 29 23 20
f 6 38 37 5
f 37 56 18 5
f 21 59 60 22
f 21 22 25
f 63 60 59
f 21 18 56 59
f 68 72 64 67
f 44 43 64 72
f 20 23 71 51
f 71 61 58 51
f 61 67 58
f 41 32 33 74
f 41 74 54 52
f 65 52 54 73
f 73 50 49 65
f 27 14 50 73
f 27 73 54 15
f 15 54 74 9
f 74 33 2 9
f 2 33 75 77
f 9 2 77 79
f 15 9 79 78
f 14 80 76 50
f 27 81 80 14
f 15 78 81 27
f 32 82 75 33
f 41 84 82 32
f 52 83 84 41
f 49 50 76 85
f 65 49 85 86
f 52 65 86 83
f 81 78 102 103
f 96 98 88 89
f 75 82 118 119
f 115 113 122 123
f 119 123 122 121
f 75 119 121 77
f 108 111 110 109
f 76 80 108 109
f 100 114 110 111
f 99 100 125 126
f 90 93 92 91
f 94 97 91 92
f 83 86 93 90
f 109 116 85 76
f 88 132 131 87
f 118 82 87 131
f 118 131 132 120
f 120 132 88 98
f 133 121 122 134
f 124 125 136 135
f 108 135 136 111
f 108 80 124 135
f 111 136 125 100
f 106 107 138 137
f 107 85 116 138
f 137 138 116 117
f 106 137 117 95
f 105 84 83 90
f 86 85 107 93
f 130 102 78 79
f 103 126 125 124
f 81 103 124 80
f 82 84 105 87
f 102 104 126 103
f 112 99 126 104
f 118 120 123 119
f 105 89 88 87
f 98 115 123 120
f 95 94 92 106
f 97 96 89 91
f 114 95 117 110
f 117 116 109 110
f 105 90 91 89
f 101 112 104 129
f 93 107 106 92
f 129 104 102 130
f 12 139 26 11
f 12 8 24 139
f 30 139 24 25
f 30 29 26 139
f 133 127 77 121
f 128 127 133 134
f 130 127 128 129
f 128 134 122 113
f 129 128 113 101
f 79 77 127 130
f 44 72 62 40
f 62 63 59 56
f 72 68 63 62
f 37 38 40
f 40 38 35 44
f 40 62 56 37
