# Blender v2.66 (sub 1) OBJ File: 'LargeBlade4.blend'
# www.blender.org
mtllib LargeBlade4.mtl
o Cube.011_Cube.012
v 0.065950 0.000000 0.059386
v 0.065950 0.469138 0.059386
v 0.065950 0.343487 0.059386
v 0.065950 1.962443 0.059386
v 0.065950 0.000000 0.000000
v 0.065950 0.000000 -0.059386
v 0.065950 0.343487 0.000000
v 0.065950 0.469138 -0.059386
v 0.065950 0.469138 -0.000000
v 0.065950 0.343487 -0.059386
v 0.065950 1.962443 -0.059386
v 0.065950 1.962443 -0.000000
v 0.065950 2.115672 -0.000000
v 0.065950 2.066313 0.029693
v 0.065950 2.066313 -0.029693
v 0.000000 0.000000 0.169711
v 0.000000 1.931397 0.230490
v -0.065950 0.000000 0.059386
v 0.000000 0.542315 0.230490
v -0.065950 0.469138 0.059386
v 0.000000 0.382528 0.169711
v -0.065950 0.343487 0.059386
v -0.065950 1.962443 0.059386
v -0.065950 0.000000 0.000000
v 0.000000 0.000000 -0.169711
v 0.000000 1.931397 -0.230490
v 0.000000 2.276818 -0.000000
v 0.000000 0.000000 -0.000000
v -0.065950 0.000000 -0.059386
v 0.000000 0.542315 -0.230490
v -0.065950 0.343487 0.000000
v -0.065950 0.469138 -0.059386
v 0.000000 0.382528 -0.169711
v -0.065950 0.469138 -0.000000
v -0.065950 0.343487 -0.059386
v -0.065950 1.962443 -0.059386
v -0.065950 1.962443 -0.000000
v -0.065950 2.115672 -0.000000
v 0.000000 2.122412 0.147359
v -0.065950 2.066313 0.029693
v -0.065950 2.066313 -0.029693
v 0.000000 2.122412 -0.147359
usemtl Material.004
s off
f 16 28 1
f 2 3 7 9
f 21 16 1 3
f 2 19 21
f 3 1 5 7
f 3 2 21
f 2 9 12 4
f 17 19 2 4
f 12 13 14 4
f 14 39 17 4
f 25 6 28
f 8 9 7 10
f 33 10 6 25
f 8 33 30
f 10 7 5 6
f 10 33 8
f 8 11 12 9
f 26 11 8 30
f 12 11 15 13
f 15 11 26 42
f 13 27 39 14
f 13 15 42 27
f 16 18 28
f 20 34 31 22
f 21 22 18 16
f 20 21 19
f 22 31 24 18
f 22 21 20
f 20 23 37 34
f 17 23 20 19
f 37 23 40 38
f 40 23 17 39
f 25 28 29
f 32 35 31 34
f 33 25 29 35
f 32 30 33
f 35 29 24 31
f 35 32 33
f 32 34 37 36
f 26 30 32 36
f 37 38 41 36
f 41 42 26 36
f 38 40 39 27
f 38 27 42 41
