# Blender v2.66 (sub 1) OBJ File: 'LargeBlade1.blend'
# www.blender.org
mtllib LargeBlade1.mtl
o Cube.005_Cube.006
v 0.065953 1.930707 0.008243
v 0.065953 0.000000 0.008243
v 0.000000 0.000000 -0.129634
v 0.000000 0.000000 0.146536
v 0.000000 2.051953 0.146536
v 0.000000 2.408809 -0.129634
v -0.065953 1.930707 0.008243
v 0.000000 0.000000 0.000000
v -0.065953 0.000000 0.008243
usemtl Material.001
s off
f 4 8 2
f 8 3 2
f 5 4 2 1
f 5 1 6
f 1 2 3 6
f 4 9 8
f 8 9 3
f 5 7 9 4
f 5 6 7
f 7 6 3 9
