# Blender v2.66 (sub 1) OBJ File: 'LargeBlade9.blend'
# www.blender.org
mtllib LargeBlade9.mtl
o Cube.026_Cube.020
v 0.065953 1.823253 -0.000813
v 0.065953 0.000000 0.014302
v 0.065950 2.076289 -0.093681
v 0.045963 2.163746 -0.222458
v 0.065953 1.567082 0.025115
v 0.065953 0.036519 0.015300
v 0.065953 0.152484 0.016140
v 0.033871 0.152534 -0.147375
v 0.065953 0.302620 0.016140
v 0.033871 0.302669 -0.147375
v 0.065953 0.454947 0.016140
v 0.033871 0.454997 -0.147375
v 0.000000 0.000000 -0.139127
v 0.000000 0.000000 0.159901
v 0.000000 1.811866 0.135485
v 0.000000 2.328392 -0.496980
v -0.065953 1.823253 -0.000813
v 0.000000 0.000000 0.013957
v -0.065953 0.000000 0.014302
v 0.000000 2.074316 0.034628
v 0.000000 2.262175 -0.206469
v -0.065950 2.076289 -0.093681
v 0.000000 1.823637 -0.218091
v 0.000000 2.195523 -0.401196
v 0.000000 2.019361 -0.287687
v -0.045963 2.163746 -0.222458
v 0.000000 1.557025 0.173787
v 0.000000 1.567421 -0.187665
v -0.065953 1.567082 0.025115
v 0.000000 0.035591 0.161183
v 0.000000 0.057190 -0.143606
v -0.065953 0.036519 0.015300
v 0.000000 0.151008 0.162261
v 0.000000 0.201472 -0.145491
v -0.065953 0.152484 0.016140
v 0.000000 0.231324 -0.269571
v 0.000000 0.349776 -0.146433
v -0.033871 0.152534 -0.147375
v 0.000000 0.301144 0.162261
v -0.065953 0.302620 0.016140
v 0.000000 0.381459 -0.269571
v -0.033871 0.302669 -0.147375
v 0.000000 0.453471 0.162261
v 0.000000 0.498080 -0.147375
v -0.065953 0.454947 0.016140
v 0.000000 0.533787 -0.269571
v -0.033871 0.454997 -0.147375
usemtl Material.008
s off
f 14 18 2
f 18 13 2
f 30 14 2 6
f 6 2 13 31
f 20 15 1 3
f 21 20 3
f 4 24 16
f 4 16 21
f 3 25 4
f 3 23 25
f 3 1 23
f 4 21 3
f 24 4 25
f 1 27 5
f 27 1 15
f 5 23 1
f 23 5 28
f 33 30 6 7
f 7 6 31
f 11 9 37
f 33 7 9 39
f 7 34 9
f 7 8 34
f 8 36 34
f 36 8 31
f 7 31 8
f 9 34 10
f 41 10 34
f 12 46 44
f 11 12 44
f 11 37 12
f 46 12 37
f 10 41 37
f 9 10 37
f 39 9 11 43
f 11 44 28 5
f 43 11 5 27
f 14 19 18
f 18 19 13
f 30 32 19 14
f 32 31 13 19
f 20 22 17 15
f 21 22 20
f 26 16 24
f 26 21 16
f 22 26 25
f 22 25 23
f 22 23 17
f 26 22 21
f 24 25 26
f 17 29 27
f 27 15 17
f 29 17 23
f 23 28 29
f 33 35 32 30
f 35 31 32
f 45 37 40
f 33 39 40 35
f 35 40 34
f 35 34 38
f 38 34 36
f 36 31 38
f 35 38 31
f 40 42 34
f 41 34 42
f 47 44 46
f 45 44 47
f 45 47 37
f 46 37 47
f 42 37 41
f 40 37 42
f 39 43 45 40
f 45 29 28 44
f 43 27 29 45
