# Blender v2.66 (sub 1) OBJ File: 'LargeBlade3.blend'
# www.blender.org
mtllib LargeBlade3.mtl
o Cube.009_Cube.003
v 0.065953 2.103379 0.000000
v 0.065953 0.000000 0.000000
v 0.065953 0.164604 0.000000
v 0.000000 0.000000 -0.117917
v 0.000000 0.000000 0.117917
v 0.000000 2.145990 0.099728
v 0.000000 2.145990 -0.099728
v -0.065953 2.103379 0.000000
v 0.000000 2.394524 0.000000
v 0.000000 0.000000 0.000000
v -0.065953 0.000000 0.000000
v 0.000000 0.130041 0.117917
v 0.000000 0.130041 -0.117917
v -0.065953 0.164604 0.000000
v 0.000000 0.204308 -0.099728
v 0.000000 0.204308 0.099728
usemtl Material.002
s off
f 5 10 2
f 10 4 2
f 12 5 2 3
f 1 9 6
f 9 1 7
f 3 2 4 13
f 16 12 3
f 3 13 15
f 6 16 3 1
f 1 3 15 7
f 5 11 10
f 10 11 4
f 12 14 11 5
f 8 6 9
f 9 7 8
f 14 13 4 11
f 16 14 12
f 14 15 13
f 6 8 14 16
f 8 7 15 14
